{
  "0" : {
    "domainType": "type",
    "name": "go types",
    "description": "type domain for go reflected types",
    "source": "",
    "idFormat": "variable",
    "defaultEncoding": "base62"
  },
  "1" : {
    "domainType": "type",
    "name": "javascript types",
    "description": "type domain for javascript types",
    "source": "",
    "idFormat": "variable",
    "defaultEncoding": "base62"
  },
  "2" : {
    "domainType": "type",
    "name": "go packages",
    "description": "type domain for go packages",
    "source": "",
    "idFormat": "variable",
    "defaultEncoding": "base62"
  }
}
