{
  "0" : {
    "domainType": "typed",
    "name": "UK Company Identifier",
    "description": "Identifiers for companies registered at UK Companies House",
    "source": "",
    "idFormat": "variable",
    "defaultEncoding": "base62"
  },
  "1" : {
    "domainType": "typed",
    "name": "OBIE ASPSP Service Identifier",
    "description": "Identifiers for ASPSP services provided via the UK OBIE",
    "source": "",
    "idFormat": "variable",
    "defaultEncoding": "base62"
  }
}
