{
  "0" : {
    "domainType": "sequence",
    "name": "Private Epoch",
    "description": "Privately namespaced sequence domains using epochs as a domain id (see Scheme J for details)",
    "source": "",
    "idFormat": "variable",
    "defaultEncoding": "base62"
  }
}
